{
  "required": true,
  "package": "com.seriouscreeper.bladditions.mixins.modsupport",
  "compatibilityLevel": "JAVA_8",
  "minVersion": "0.8",
  "refmap": "refmap.bladditions.json",
  "mixins": [
    "MixinBLFluidRegistry",
    "MixinBlockChoppingBoard",
    "MixinMystgears",
    "arcanearchives.MixinItemUtilsAA",
    "arcanearchives.MixinRadiantTankTileEntity",
    "arcanearchives.MixinRadiantTroveTileEntity",
    "arcaneworld.MixinBiomeArcaneDungeon",
    "arcaneworld.MixinBlockReturnPortal",
    "arcaneworld.MixinDungeonDimension",
    "arcaneworld.MixinDungeonDimensionEvents",
    "arcaneworld.MixinDungeonDimensionEventsClient",
    "arcaneworld.MixinDungeonDimensionProvider",
    "basketcase.MixinBlockTileEntryBasket",
    "blockcraftery.MixinTileEditableBlock",
    "bloodmagic.MixinAlchemyArrayEffectArrowTurret",
    "bloodmagic.MixinItemBoundAxe",
    "bloodmagic.MixinItemBoundPickaxe",
    "bloodmagic.MixinItemBoundShovel",
    "bloodmagic.MixinItemBoundSword",
    "bloodmagic.MixinItemCuttingFluid",
    "bloodmagic.MixinItemSentientArmour",
    "bloodmagic.MixinItemSentientAxe",
    "bloodmagic.MixinItemSentientPickaxe",
    "bloodmagic.MixinItemSentientShovel",
    "bloodmagic.MixinItemSentientSword",
    "bloodmagic.MixinModRecipes",
    "bloodmagic.MixinRegistrarBloodMagicRecipes",
    "bloodmagic.MixinTileInversionPillar",
    "botania.MixinBlockAltar",
    "botania.MixinBlockModMushroom",
    "botania.MixinBlockSpecialFlower",
    "botania.MixinCompositeLensRecipe",
    "botania.MixinCompositeLensRecipeWrapper",
    "botania.MixinEntityCorporeaSpark",
    "botania.MixinEntityThornChakram",
    "botania.MixinItemCobbleRod",
    "botania.MixinItemFertilizer",
    "botania.MixinItemManaResource",
    "botania.MixinLensMine",
    "botania.MixinLensPiston",
    "botania.MixinOrechidIgnemRecipeWrapper",
    "botania.MixinOrechidRecipeWrapper",
    "botania.MixinSubTileGenerating",
    "botania.MixinSubTileKekimurus",
    "botania.MixinSubTileNarslimmus",
    "botania.MixinSubTileSpectrolus",
    "botania.MixinTileAltar",
    "botania.MixinTileHourglass",
    "botania.MixinTileSpecialFlower",
    "botania.functional_flora.MixinSubTileAgricarnation",
    "botania.functional_flora.MixinSubTileClayconia",
    "botania.functional_flora.MixinSubTileJadedAmaranthus",
    "botania.functional_flora.MixinSubTileMarimorphosis",
    "botania.functional_flora.MixinSubTileOrechid",
    "botania.functional_flora.MixinSubTileOrechidIgnem",
    "botania.tools.MixinItemManasteelAxe",
    "botania.tools.MixinItemManasteelPick",
    "botania.tools.MixinItemManasteelShovel",
    "botania.tools.MixinItemManasteelSword",
    "charsetimmersion.MixinCharsetImmersion",
    "corpse.MixinEntityCorpse",
    "darknesslib.MixinDarknessLibAPI",
    "embers.MixinAnvilBreakdownRecipe",
    "embers.MixinAnvilRepairRecipe",
    "embers.MixinBlockSteamEngine",
    "embers.MixinItemNonbelieverAmulet",
    "embers.MixinMysticalMechanicsIntegration",
    "embers.MixinResearchShowItem",
    "embers.MixinTileEntityBoilerBottom",
    "embers.MixinTileEntityBreaker",
    "embers.MixinTileEntityDawnstoneAnvil",
    "eyesinthedarkness.MixinEntityEyes",
    "fairylights.MixinFairyLightsRecipes",
    "firespreadtweaks.MixinFireSpreadEvent",
    "fishundeadrising.MixinEntityFishTameable",
    "fishundeadrising.MixinEntityMimic",
    "fishundeadrising.MixinEntityParasite",
    "fishundeadrising.MixinEntityRaven",
    "fishundeadrising.MixinEntityZombieMushroom",
    "fishundeadrising.MixinLootTableHandler",
    "fishundeadrising.MixinModEventHandler",
    "ftbquests.MixinButtonOpenInGuide",
    "ftbquests.MixinButtonQuest",
    "growthcraft.MixinCheese",
    "growthcraft.MixinDeviceBeeBox",
    "growthcraft.MixinGrapesDropHandler",
    "growthcraft.MixinHarvestDropsEventHandler",
    "growthcraft.MixinInitBees",
    "grue.MixinGrueEventHandler",
    "ignitehud.MixinGuiWidget",
    "itemstages.MixinItemStages",
    "livingchest.MixinChesterEntity",
    "mysticallib.MixinBlockCropBase",
    "mysticallib.MixinBreakUtil",
    "pizzacraft.MixinBlockPizza",
    "pizzacraft.MixinBlockPizzaBoardBase",
    "pizzacraft.MixinFoodBase",
    "pizzacraft.MixinPizzaOven",
    "pyrotech.MixinBlockKilnPit",
    "pyrotech.MixinItemAxe",
    "pyrotech.MixinTileKilnBase",
    "pyrotech.MixinTileMechanicalMulchSpreader",
    "pyrotech.MixinTileWitherForge",
    "pyrotech.MixinWorldGenDenseRedstoneOre",
    "quark.MixinEntityLeashKnot",
    "realisticstorage.MixinContainerGuard",
    "reccomplex.MixinTransformerNatural",
    "redstonepaste.MixinBlockRedstonePaste",
    "roots.EventManager",
    "roots.MixinBlockCloudBerryCrop",
    "roots.MixinBlockDewgoniaCrop",
    "roots.MixinBlockGroveStone",
    "roots.MixinBlockInfernalBulbCrop",
    "roots.MixinBlockStalicripeCrop",
    "roots.MixinDispenseRunicShears",
    "roots.MixinEntityRitualAnimalHarvest",
    "roots.MixinEntityRitualDivineProtection",
    "roots.MixinEntityRitualFrostLands",
    "roots.MixinEntityRitualHeavyStorms",
    "roots.MixinEntityRitualSummonCreatures",
    "roots.MixinILivingRepair",
    "roots.MixinMossConfig",
    "roots.MixinRitualSummonCreatures",
    "roots.MixinRunicShears",
    "roots.MixinRunicShearsEntityCategory",
    "roots.MixinSpellLibraryData",
    "roots.MixinUUIDRegistry",
    "roots.spells.MixinSpellGrowthInfusion",
    "roots.spells.MixinSpellShatter",
    "sanity.MixinConsequenceManager",
    "sanity.MixinEyesConsequences",
    "sanity.MixinIConsequences",
    "sanity.MixinLightSeekerConsequence",
    "sanity.MixinLightSeekerEntity",
    "sanity.MixinSanityCapability",
    "sanity.MixinSanityCapabilityStorage",
    "simpledifficulty.MixinPotionParasites",
    "simpledifficulty.MixinTemperatureCapability",
    "simpledifficulty.MixinTemperatureRegistry",
    "simpledifficulty.MixinThirstUtilInternal",
    "soot.MixinCraftingRegistry",
    "starterkit.MixinClaimTracker",
    "storagedrawers.MixinDrawerData",
    "storagedrawers.MixinTileEntityDrawers",
    "teastory.MixinKettle",
    "teastory.MixinTeaDrink",
    "teastory.MixinTeaPlant",
    "teastory.teas.MixinBlackTea",
    "teastory.teas.MixinGreenTea",
    "teastory.teas.MixinOolongTea",
    "teastory.teas.MixinPuerTea",
    "teastory.teas.MixinWhiteTea",
    "teastory.teas.MixinYellowTea",
    "thaumcraft.MixinBlockBarrier",
    "thaumcraft.MixinBlockGolemBuilder",
    "thaumcraft.MixinBlockHungryChest",
    "thaumcraft.MixinBlockResearchTable",
    "thaumcraft.MixinBlockStonePorous",
    "thaumcraft.MixinBlockUtils",
    "thaumcraft.MixinConfigResearch",
    "thaumcraft.MixinFocusEffectBreak",
    "thaumcraft.MixinFocusEffectFire",
    "thaumcraft.MixinFocusEffectFrost",
    "thaumcraft.MixinFocusEffectRift",
    "thaumcraft.MixinGolemAddon",
    "thaumcraft.MixinGolemArm",
    "thaumcraft.MixinGolemHead",
    "thaumcraft.MixinGolemLeg",
    "thaumcraft.MixinGolemMaterial",
    "thaumcraft.MixinHudHandler",
    "thaumcraft.MixinItemSanityChecker",
    "thaumcraft.MixinModConfig",
    "thaumcraft.MixinPacketFXScanSource",
    "thaumcraft.MixinPlayerEvents",
    "thaumcraft.MixinThaumcraftCraftingManager",
    "thaumcraft.MixinThaumcraftWorldGenerator",
    "thaumcraft.MixinTileBarrierStone",
    "thaumcraft.MixinTileLampGrowth",
    "thaumcraft.MixinUtils",
    "thaumcraft.entities.MixinEntityCultist",
    "thaumcraft.entities.MixinEntityCultistPortalGreater",
    "thaumcraft.entities.MixinEntityCultistPortalLesser",
    "thaumcraft.entities.MixinEntityEldritchGuardian",
    "thaumcraft.entities.MixinEntityOwnedConstruct",
    "thaumcraft.entities.MixinEntityTaintSeed",
    "thaumcraft.entities.MixinEntityThaumcraftBoss",
    "thaumicaugmentation.MixinFocusEffectLight",
    "thaumicjei.MixinThaumcraftJEIPlugin",
    "thaumicperiphery.MixinItemPauldronRepulsion",
    "thebetweenlands.MixinBetweenlandsSpawnerLogic",
    "thebetweenlands.MixinBiomeDecoratorMarsh",
    "thebetweenlands.MixinBLFurnace",
    "thebetweenlands.MixinBlockBarrel",
    "thebetweenlands.MixinBlockBreakHandler",
    "thebetweenlands.MixinBlockPlant",
    "thebetweenlands.MixinBlockSaplingSpiritTree",
    "thebetweenlands.MixinDruidAltarRecipeMaker",
    "thebetweenlands.MixinEntityChiromawTame",
    "thebetweenlands.MixinEntityDarkDruid",
    "thebetweenlands.MixinEntityGiantToad",
    "thebetweenlands.MixinEntityLurker",
    "thebetweenlands.MixinEntityRockSnot",
    "thebetweenlands.MixinEntitySwarm",
    "thebetweenlands.MixinEntityWight",
    "thebetweenlands.MixinFoodSicknessHandler",
    "thebetweenlands.MixinItemBarkAmulet",
    "thebetweenlands.MixinItemBLArrow",
    "thebetweenlands.MixinItemBoneWayfinder",
    "thebetweenlands.MixinItemMagicItemMagnet",
    "thebetweenlands.MixinItemMobAnadia",
    "thebetweenlands.MixinItemMummyBait",
    "thebetweenlands.MixinItemNet",
    "thebetweenlands.MixinItemRegistry",
    "thebetweenlands.MixinItemRingOfDisperion",
    "thebetweenlands.MixinLocationSludgeWormDungeon",
    "thebetweenlands.MixinRecipeRegistry",
    "thebetweenlands.MixinSludgeWormMazeBlockHelper",
    "thebetweenlands.MixinTeleporterBetweenlands",
    "thebetweenlands.MixinTileEntityMothHouse",
    "thebetweenlands.MixinTileEntityOfferingTable",
    "thebetweenlands.MixinTileEntityWaterFilter",
    "thebetweenlands.MixinWorldGenWightFortress",
    "thebetweenlands.PuppetHandler",
    "thebetweenlands.structures.MixinWorldGenCragrockTower",
    "thebetweenlands.structures.MixinWorldGenGiantTree",
    "thebetweenlands.structures.MixinWorldGenIdolHeads",
    "thebetweenlands.structures.MixinWorldGenSludgeWormDungeon",
    "thebetweenlands.structures.MixinWorldGenSpiritTree",
    "thebetweenlands.structures.WorldGenWightFortress",
    "toolbelt.MixinToolbeltConfig"
  ],
  "client": [
    "arcanearchives.MixinGUIRadiantChest",
    "bloodmagic.MixinClientHandler",
    "corpse.MixinGuiDeathHistory",
    "quark.MixinRenderLeashKnot2",
    "thaumcraft.MixinGuiFocalManipulator",
    "thebetweenlands.MixinGuiFirefly",
    "botania.MixinTileAltarClient"
  ]
}