{
  "required": true,
  "package": "com.seriouscreeper.bladditions.mixins",
  "compatibilityLevel": "JAVA_8",
  "minVersion": "0.8",
  "refmap": "refmap.bladditions.json",
  "mixins": [
    "init.MapColorAccessor",
    "init.MixinBlockPistonBase",
    "init.MixinEntityAINearestAttackableTarget",
    "init.MixinItemDye",
    "init.MixinLeashKnot",
    "init.MixinMapColors",
    "init.MixinPotionUtils",
    "init.MixinWorld"
  ],
  "client": [
    "init.MixinBlockRedstoneWire",
    "init.MixinGuiIngameForge",
    "init.MixinRenderLiving"
  ]
}